   formula
1                                                                                                                                                                                                                                                                                                                                                                                                                                                                                                                                                                                                                                                                                                                                                                                                                    1
2  id + ccf + age + sex + painloc + painexer + relrest + pncaden + cp + trestbps + htn + chol + smoke + cigs + years + fbs + dm + famhist + restecg + ekgmo + ekgday + ekgyr + dig + prop + nitr + pro + diuretic + proto + thaldur + thaltime + met + thalach + thalrest + tpeakbps + tpeakbpd + dummy + trestbpd + exang + xhypo + oldpeak + slope + rldv5 + rldv5e + ca + restckm + exerckm + restef + restwm + exeref + exerwm + thal + thalsev + thalpul + earlobe + cmo + cday + cyr + num + lmt + ladprox + laddist + \n    diag + cxmain + ramus + om1 + om2 + rcaprox + rcadist + lvx1 + lvx2 + lvx3 + lvx4 + lvf + cathef + junk + unkown1 + regressionresult + unknown2 + country + happiness + whisker.high + whisker.low + economy + family + health + freedom + generosity + trust.government + dystopia
3                                                                                                                                                                                                                                                                                                                                                                                                                                                                                                                                                                                                                                                                                                                                                                                                                  lvf
4                                                                                                                                                                                                                                                                                                                                                                                                                                                                                                                                                                                                                                                                                                                                                                                                         lvf + restef
5                                                                                                                                                                                                                                                                                                                                                                                                                                                                                                                                                                                                                                                                                                                                                                                               lvf + restef + thalsev
6                                                                                                                                                                                                                                                                                                                                                                                                                                                                                                                                                                                                                                                                                                                                                                                          lvf + restef + thalsev + dm
7                                                                                                                                                                                                                                                                                                                                                                                                                                                                                                                                                                                                                                                                                                                                                                                    lvf + restef + thalsev + dm + age
8                                                                                                                                                                                                                                                                                                                                                                                                                                                                                                                                                                                                                                                                                                                                                                            lvf + restef + thalsev + dm + age + rldv5
9                                                                                                                                                                                                                                                                                                                                                                                                                                                                                                                                                                                                                                                                                                                                                                  lvf + restef + thalsev + dm + age + rldv5 + painloc
10                                                                                                                                                                                                                                                                                                                                                                                                                                                                                                                                                                                                                                                                                                                                                          lvf + restef + thalsev + dm + age + rldv5 + painloc + thal
11                                                                                                                                                                                                                                                                                                                                                                                                                                                                                                                                                                                                                                                                                                                                                  lvf + restef + thalsev + dm + age + rldv5 + painloc + thal + slope
12                                                                                                                                                                                                                                                                                                                                                                                                                                                                                                                                                                                                                                                                                                                                                  lvf + restef + thalsev + dm + age + rldv5 + painloc + thal + slope
13                                                                                                                                                                                                                                                                                                                                                                                                                                                                                                                                                                                                                                                                                                                                                  lvf + restef + thalsev + dm + age + rldv5 + painloc + thal + slope
14                                                                                                                                                                                                                                                                                                                                                                                                                                                                                                                                                                                                                                                                                                                                                  lvf + restef + thalsev + dm + age + rldv5 + painloc + thal + slope
15                                                                                                                                                                                                                                                                                                                                                                                                                                                                                                                                                                                                                                                                                                                                                  lvf + restef + thalsev + dm + age + rldv5 + painloc + thal + slope
16                                                                                                                                                                                                                                                                                                                                                                                                                                                                                                                                                                                                                                                                                                                                                  lvf + restef + thalsev + dm + age + rldv5 + painloc + thal + slope
17                                                                                                                                                                                                                                                                                                                                                                                                                                                                                                                                                                                                                                                                                                                                                  lvf + restef + thalsev + dm + age + rldv5 + painloc + thal + slope
18                                                                                                                                                                                                                                                                                                                                                                                                                                                                                                                                                                                                                                                                                                                                                  lvf + restef + thalsev + dm + age + rldv5 + painloc + thal + slope
19                                                                                                                                                                                                                                                                                                                                                                                                                                                                                                                                                                                                                                                                                                                                                  lvf + restef + thalsev + dm + age + rldv5 + painloc + thal + slope
20                                                                                                                                                                                                                                                                                                                                                                                                                                                                                                                                                                                                                                                                                                                                                  lvf + restef + thalsev + dm + age + rldv5 + painloc + thal + slope
21                                                                                                                                                                                                                                                                                                                                                                                                                                                                                                                                                                                                                                                                                                                                                  lvf + restef + thalsev + dm + age + rldv5 + painloc + thal + slope
22                                                                                                                                                                                                                                                                                                                                                                                                                                                                                                                                                                                                                                                                                                                                                  lvf + restef + thalsev + dm + age + rldv5 + painloc + thal + slope
23                                                                                                                                                                                                                                                                                                                                                                                                                                                                                                                                                                                                                                                                                                                                                  lvf + restef + thalsev + dm + age + rldv5 + painloc + thal + slope
24                                                                                                                                                                                                                                                                                                                                                                                                                                                                                                                                                                                                                                                                                                                                                  lvf + restef + thalsev + dm + age + rldv5 + painloc + thal + slope
25                                                                                                                                                                                                                                                                                                                                                                                                                                                                                                                                                                                                                                                                                                                                                  lvf + restef + thalsev + dm + age + rldv5 + painloc + thal + slope
26                                                                                                                                                                                                                                                                                                                                                                                                                                                                                                                                                                                                                                                                                                                                                  lvf + restef + thalsev + dm + age + rldv5 + painloc + thal + slope
27                                                                                                                                                                                                                                                                                                                                                                                                                                                                                                                                                                                                                                                                                                                                                  lvf + restef + thalsev + dm + age + rldv5 + painloc + thal + slope
28                                                                                                                                                                                                                                                                                                                                                                                                                                                                                                                                                                                                                                                                                                                                                  lvf + restef + thalsev + dm + age + rldv5 + painloc + thal + slope
29                                                                                                                                                                                                                                                                                                                                                                                                                                                                                                                                                                                                                                                                                                                                                  lvf + restef + thalsev + dm + age + rldv5 + painloc + thal + slope
30                                                                                                                                                                                                                                                                                                                                                                                                                                                                                                                                                                                                                                                                                                                                                  lvf + restef + thalsev + dm + age + rldv5 + painloc + thal + slope
31                                                                                                                                                                                                                                                                                                                                                                                                                                                                                                                                                                                                                                                                                                                                                  lvf + restef + thalsev + dm + age + rldv5 + painloc + thal + slope
32                                                                                                                                                                                                                                                                                                                                                                                                                                                                                                                                                                                                                                                                                                                                                  lvf + restef + thalsev + dm + age + rldv5 + painloc + thal + slope
33                                                                                                                                                                                                                                                                                                                                                                                                                                                                                                                                                                                                                                                                                                                                                  lvf + restef + thalsev + dm + age + rldv5 + painloc + thal + slope
34                                                                                                                                                                                                                                                                                                                                                                                                                                                                                                                                                                                                                                                                                                                                                  lvf + restef + thalsev + dm + age + rldv5 + painloc + thal + slope
35                                                                                                                                                                                                                                                                                                                                                                                                                                                                                                                                                                                                                                                                                                                                                  lvf + restef + thalsev + dm + age + rldv5 + painloc + thal + slope
36                                                                                                                                                                                                                                                                                                                                                                                                                                                                                                                                                                                                                                                                                                                                                  lvf + restef + thalsev + dm + age + rldv5 + painloc + thal + slope
37                                                                                                                                                                                                                                                                                                                                                                                                                                                                                                                                                                                                                                                                                                                                                  lvf + restef + thalsev + dm + age + rldv5 + painloc + thal + slope
38                                                                                                                                                                                                                                                                                                                                                                                                                                                                                                                                                                                                                                                                                                                                                  lvf + restef + thalsev + dm + age + rldv5 + painloc + thal + slope
39                                                                                                                                                                                                                                                                                                                                                                                                                                                                                                                                                                                                                                                                                                                                                  lvf + restef + thalsev + dm + age + rldv5 + painloc + thal + slope
40                                                                                                                                                                                                                                                                                                                                                                                                                                                                                                                                                                                                                                                                                                                                                  lvf + restef + thalsev + dm + age + rldv5 + painloc + thal + slope
41                                                                                                                                                                                                                                                                                                                                                                                                                                                                                                                                                                                                                                                                                                                                                  lvf + restef + thalsev + dm + age + rldv5 + painloc + thal + slope
42                                                                                                                                                                                                                                                                                                                                                                                                                                                                                                                                                                                                                                                                                                                                                  lvf + restef + thalsev + dm + age + rldv5 + painloc + thal + slope
43                                                                                                                                                                                                                                                                                                                                                                                                                                                                                                                                                                                                                                                                                                                                                  lvf + restef + thalsev + dm + age + rldv5 + painloc + thal + slope
44                                                                                                                                                                                                                                                                                                                                                                                                                                                                                                                                                                                                                                                                                                                                                  lvf + restef + thalsev + dm + age + rldv5 + painloc + thal + slope
45                                                                                                                                                                                                                                                                                                                                                                                                                                                                                                                                                                                                                                                                                                                                                  lvf + restef + thalsev + dm + age + rldv5 + painloc + thal + slope
46                                                                                                                                                                                                                                                                                                                                                                                                                                                                                                                                                                                                                                                                                                                                                  lvf + restef + thalsev + dm + age + rldv5 + painloc + thal + slope
47                                                                                                                                                                                                                                                                                                                                                                                                                                                                                                                                                                                                                                                                                                                                                  lvf + restef + thalsev + dm + age + rldv5 + painloc + thal + slope
48                                                                                                                                                                                                                                                                                                                                                                                                                                                                                                                                                                                                                                                                                                                                                  lvf + restef + thalsev + dm + age + rldv5 + painloc + thal + slope
49                                                                                                                                                                                                                                                                                                                                                                                                                                                                                                                                                                                                                                                                                                                                                  lvf + restef + thalsev + dm + age + rldv5 + painloc + thal + slope
50                                                                                                                                                                                                                                                                                                                                                                                                                                                                                                                                                                                                                                                                                                                                                  lvf + restef + thalsev + dm + age + rldv5 + painloc + thal + slope
51                                                                                                                                                                                                                                                                                                                                                                                                                                                                                                                                                                                                                                                                                                                                                  lvf + restef + thalsev + dm + age + rldv5 + painloc + thal + slope
52                                                                                                                                                                                                                                                                                                                                                                                                                                                                                                                                                                                                                                                                                                                                                  lvf + restef + thalsev + dm + age + rldv5 + painloc + thal + slope
53                                                                                                                                                                                                                                                                                                                                                                                                                                                                                                                                                                                                                                                                                                                                                  lvf + restef + thalsev + dm + age + rldv5 + painloc + thal + slope
54                                                                                                                                                                                                                                                                                                                                                                                                                                                                                                                                                                                                                                                                                                                                                  lvf + restef + thalsev + dm + age + rldv5 + painloc + thal + slope
55                                                                                                                                                                                                                                                                                                                                                                                                                                                                                                                                                                                                                                                                                                                                                  lvf + restef + thalsev + dm + age + rldv5 + painloc + thal + slope
56                                                                                                                                                                                                                                                                                                                                                                                                                                                                                                                                                                                                                                                                                                                                                  lvf + restef + thalsev + dm + age + rldv5 + painloc + thal + slope
57                                                                                                                                                                                                                                                                                                                                                                                                                                                                                                                                                                                                                                                                                                                                                  lvf + restef + thalsev + dm + age + rldv5 + painloc + thal + slope
58                                                                                                                                                                                                                                                                                                                                                                                                                                                                                                                                                                                                                                                                                                                                                  lvf + restef + thalsev + dm + age + rldv5 + painloc + thal + slope
59                                                                                                                                                                                                                                                                                                                                                                                                                                                                                                                                                                                                                                                                                                                                                  lvf + restef + thalsev + dm + age + rldv5 + painloc + thal + slope
60                                                                                                                                                                                                                                                                                                                                                                                                                                                                                                                                                                                                                                                                                                                                                  lvf + restef + thalsev + dm + age + rldv5 + painloc + thal + slope
61                                                                                                                                                                                                                                                                                                                                                                                                                                                                                                                                                                                                                                                                                                                                                  lvf + restef + thalsev + dm + age + rldv5 + painloc + thal + slope
62                                                                                                                                                                                                                                                                                                                                                                                                                                                                                                                                                                                                                                                                                                                                                  lvf + restef + thalsev + dm + age + rldv5 + painloc + thal + slope
63                                                                                                                                                                                                                                                                                                                                                                                                                                                                                                                                                                                                                                                                                                                                                  lvf + restef + thalsev + dm + age + rldv5 + painloc + thal + slope
64                                                                                                                                                                                                                                                                                                                                                                                                                                                                                                                                                                                                                                                                                                                                                  lvf + restef + thalsev + dm + age + rldv5 + painloc + thal + slope
65                                                                                                                                                                                                                                                                                                                                                                                                                                                                                                                                                                                                                                                                                                                                                  lvf + restef + thalsev + dm + age + rldv5 + painloc + thal + slope
66                                                                                                                                                                                                                                                                                                                                                                                                                                                                                                                                                                                                                                                                                                                                                  lvf + restef + thalsev + dm + age + rldv5 + painloc + thal + slope
67                                                                                                                                                                                                                                                                                                                                                                                                                                                                                                                                                                                                                                                                                                                                                  lvf + restef + thalsev + dm + age + rldv5 + painloc + thal + slope
68                                                                                                                                                                                                                                                                                                                                                                                                                                                                                                                                                                                                                                                                                                                                                  lvf + restef + thalsev + dm + age + rldv5 + painloc + thal + slope
69                                                                                                                                                                                                                                                                                                                                                                                                                                                                                                                                                                                                                                                                                                                                                  lvf + restef + thalsev + dm + age + rldv5 + painloc + thal + slope
70                                                                                                                                                                                                                                                                                                                                                                                                                                                                                                                                                                                                                                                                                                                                                  lvf + restef + thalsev + dm + age + rldv5 + painloc + thal + slope
71                                                                                                                                                                                                                                                                                                                                                                                                                                                                                                                                                                                                                                                                                                                                                  lvf + restef + thalsev + dm + age + rldv5 + painloc + thal + slope
72                                                                                                                                                                                                                                                                                                                                                                                                                                                                                                                                                                                                                                                                                                                                                  lvf + restef + thalsev + dm + age + rldv5 + painloc + thal + slope
73                                                                                                                                                                                                                                                                                                                                                                                                                                                                                                                                                                                                                                                                                                                                                  lvf + restef + thalsev + dm + age + rldv5 + painloc + thal + slope
74                                                                                                                                                                                                                                                                                                                                                                                                                                                                                                                                                                                                                                                                                                                                                  lvf + restef + thalsev + dm + age + rldv5 + painloc + thal + slope
75                                                                                                                                                                                                                                                                                                                                                                                                                                                                                                                                                                                                                                                                                                                                                  lvf + restef + thalsev + dm + age + rldv5 + painloc + thal + slope
76                                                                                                                                                                                                                                                                                                                                                                                                                                                                                                                                                                                                                                                                                                                                                  lvf + restef + thalsev + dm + age + rldv5 + painloc + thal + slope
77                                                                                                                                                                                                                                                                                                                                                                                                                                                                                                                                                                                                                                                                                                                                                  lvf + restef + thalsev + dm + age + rldv5 + painloc + thal + slope
78                                                                                                                                                                                                                                                                                                                                                                                                                                                                                                                                                                                                                                                                                                                                                  lvf + restef + thalsev + dm + age + rldv5 + painloc + thal + slope
79                                                                                                                                                                                                                                                                                                                                                                                                                                                                                                                                                                                                                                                                                                                                                  lvf + restef + thalsev + dm + age + rldv5 + painloc + thal + slope
80                                                                                                                                                                                                                                                                                                                                                                                                                                                                                                                                                                                                                                                                                                                                                  lvf + restef + thalsev + dm + age + rldv5 + painloc + thal + slope
81                                                                                                                                                                                                                                                                                                                                                                                                                                                                                                                                                                                                                                                                                                                                                  lvf + restef + thalsev + dm + age + rldv5 + painloc + thal + slope
82                                                                                                                                                                                                                                                                                                                                                                                                                                                                                                                                                                                                                                                                                                                                                  lvf + restef + thalsev + dm + age + rldv5 + painloc + thal + slope
83                                                                                                                                                                                                                                                                                                                                                                                                                                                                                                                                                                                                                                                                                                                                                  lvf + restef + thalsev + dm + age + rldv5 + painloc + thal + slope
84                                                                                                                                                                                                                                                                                                                                                                                                                                                                                                                                                                                                                                                                                                                                                  lvf + restef + thalsev + dm + age + rldv5 + painloc + thal + slope
85                                                                                                                                                                                                                                                                                                                                                                                                                                                                                                                                                                                                                                                                                                                                                  lvf + restef + thalsev + dm + age + rldv5 + painloc + thal + slope
86                                                                                                                                                                                                                                                                                                                                                                                                                                                                                                                                                                                                                                                                                                                                                  lvf + restef + thalsev + dm + age + rldv5 + painloc + thal + slope
87                                                                                                                                                                                                                                                                                                                                                                                                                                                                                                                                                                                                                                                                                                                                                  lvf + restef + thalsev + dm + age + rldv5 + painloc + thal + slope
88                                                                                                                                                                                                                                                                                                                                                                                                                                                                                                                                                                                                                                                                                                                                                  lvf + restef + thalsev + dm + age + rldv5 + painloc + thal + slope
89                                                                                                                                                                                                                                                                                                                                                                                                                                                                                                                                                                                                                                                                                                                                                  lvf + restef + thalsev + dm + age + rldv5 + painloc + thal + slope
90                                                                                                                                                                                                                                                                                                                                                                                                                                                                                                                                                                                                                                                                                                                                                  lvf + restef + thalsev + dm + age + rldv5 + painloc + thal + slope
91                                                                                                                                                                                                                                                                                                                                                                                                                                                                                                                                                                                                                                                                                                                                                  lvf + restef + thalsev + dm + age + rldv5 + painloc + thal + slope
92                                                                                                                                                                                                                                                                                                                                                                                                                                                                                                                                                                                                                                                                                                                                                  lvf + restef + thalsev + dm + age + rldv5 + painloc + thal + slope
   n_features    train_mse     test_mse
1           1 2.939516e-01 2.001018e-01
2          91 4.185525e-32 4.917049e-32
3           1 8.535958e-30 5.814857e-30
4           2 8.752452e-30 6.121462e-30
5           3 8.600087e-30 5.970702e-30
6           4 9.186145e-30 6.494556e-30
7           5 9.122876e-30 6.533355e-30
8           6 8.543990e-30 6.097224e-30
9           7 9.306514e-30 6.814592e-30
10          8 9.483894e-30 6.957729e-30
11          9 1.000071e-29 7.141241e-30
12          9 1.000071e-29 7.141241e-30
13          9 1.000071e-29 7.141241e-30
14          9 1.000071e-29 7.141241e-30
15          9 1.000071e-29 7.141241e-30
16          9 1.000071e-29 7.141241e-30
17          9 1.000071e-29 7.141241e-30
18          9 1.000071e-29 7.141241e-30
19          9 1.000071e-29 7.141241e-30
20          9 1.000071e-29 7.141241e-30
21          9 1.000071e-29 7.141241e-30
22          9 1.000071e-29 7.141241e-30
23          9 1.000071e-29 7.141241e-30
24          9 1.000071e-29 7.141241e-30
25          9 1.000071e-29 7.141241e-30
26          9 1.000071e-29 7.141241e-30
27          9 1.000071e-29 7.141241e-30
28          9 1.000071e-29 7.141241e-30
29          9 1.000071e-29 7.141241e-30
30          9 1.000071e-29 7.141241e-30
31          9 1.000071e-29 7.141241e-30
32          9 1.000071e-29 7.141241e-30
33          9 1.000071e-29 7.141241e-30
34          9 1.000071e-29 7.141241e-30
35          9 1.000071e-29 7.141241e-30
36          9 1.000071e-29 7.141241e-30
37          9 1.000071e-29 7.141241e-30
38          9 1.000071e-29 7.141241e-30
39          9 1.000071e-29 7.141241e-30
40          9 1.000071e-29 7.141241e-30
41          9 1.000071e-29 7.141241e-30
42          9 1.000071e-29 7.141241e-30
43          9 1.000071e-29 7.141241e-30
44          9 1.000071e-29 7.141241e-30
45          9 1.000071e-29 7.141241e-30
46          9 1.000071e-29 7.141241e-30
47          9 1.000071e-29 7.141241e-30
48          9 1.000071e-29 7.141241e-30
49          9 1.000071e-29 7.141241e-30
50          9 1.000071e-29 7.141241e-30
51          9 1.000071e-29 7.141241e-30
52          9 1.000071e-29 7.141241e-30
53          9 1.000071e-29 7.141241e-30
54          9 1.000071e-29 7.141241e-30
55          9 1.000071e-29 7.141241e-30
56          9 1.000071e-29 7.141241e-30
57          9 1.000071e-29 7.141241e-30
58          9 1.000071e-29 7.141241e-30
59          9 1.000071e-29 7.141241e-30
60          9 1.000071e-29 7.141241e-30
61          9 1.000071e-29 7.141241e-30
62          9 1.000071e-29 7.141241e-30
63          9 1.000071e-29 7.141241e-30
64          9 1.000071e-29 7.141241e-30
65          9 1.000071e-29 7.141241e-30
66          9 1.000071e-29 7.141241e-30
67          9 1.000071e-29 7.141241e-30
68          9 1.000071e-29 7.141241e-30
69          9 1.000071e-29 7.141241e-30
70          9 1.000071e-29 7.141241e-30
71          9 1.000071e-29 7.141241e-30
72          9 1.000071e-29 7.141241e-30
73          9 1.000071e-29 7.141241e-30
74          9 1.000071e-29 7.141241e-30
75          9 1.000071e-29 7.141241e-30
76          9 1.000071e-29 7.141241e-30
77          9 1.000071e-29 7.141241e-30
78          9 1.000071e-29 7.141241e-30
79          9 1.000071e-29 7.141241e-30
80          9 1.000071e-29 7.141241e-30
81          9 1.000071e-29 7.141241e-30
82          9 1.000071e-29 7.141241e-30
83          9 1.000071e-29 7.141241e-30
84          9 1.000071e-29 7.141241e-30
85          9 1.000071e-29 7.141241e-30
86          9 1.000071e-29 7.141241e-30
87          9 1.000071e-29 7.141241e-30
88          9 1.000071e-29 7.141241e-30
89          9 1.000071e-29 7.141241e-30
90          9 1.000071e-29 7.141241e-30
91          9 1.000071e-29 7.141241e-30
92          9 1.000071e-29 7.141241e-30